…
``` r
# Function that uses a dataframe and column with dplyr
sumByColumn <- function(df, valueCol) {
  
  df %>%
    group_by(species) %>%
    summarize(totalValue = sum( {{valueCol}} )) # uses a column in df, based on function
}

# Call function 
sumByColumn(df       = starwars,  # The data
            valueCol = mass )     # THe value columns
```

    # A tibble: 38 x 2
       species   totalValue
       <chr>          <dbl>
     1 Aleena            15
     2 Besalisk         102
     3 Cerean            82
     4 Chagrian          NA
     5 Clawdite          55
     6 Droid             NA
     7 Dug               40
     8 Ewok              20
     9 Geonosian         80
    10 Gungan            NA
    # ... with 28 more rows
…
  df %>%
    # uses a column in df, based on function
    group_by( {{categoricalCol}} ) %>%
    summarize(totalValue = sum( mass )) # note static
}

# Call function 
sumByColumn(df             = starwars,  # The data
            categoricalCol = species )     # THe value columns
```

    # A tibble: 38 x 2
       species   totalValue
       <chr>          <dbl>
     1 Aleena            15
     2 Besalisk         102
     3 Cerean            82
     4 Chagrian          NA
     5 Clawdite          55
     6 Droid             NA
     7 Dug               40
     8 Ewok              20
     9 Geonosian         80
    10 Gungan            NA
    # ... with 28 more rows
